(module AC_Receptacle (layer F.Cu) (tedit 5796FD41)
  (fp_text reference REF** (at -35.56 0) (layer F.SilkS)
    (effects (font (size 1 1) (thickness 0.15)))
  )
  (fp_text value AC_Receptacle (at -38.1 -2.54) (layer F.Fab)
    (effects (font (size 1 1) (thickness 0.15)))
  )
  (fp_line (start -20.32 -11.43) (end 20.32 -11.43) (layer F.SilkS) (width 0.15))
  (pad 1 thru_hole circle (at -7 0) (size 3.8 3.8) (drill 1.8) (layers *.Cu *.Mask F.SilkS))
  (pad 2 thru_hole circle (at 0 0) (size 3.8 3.8) (drill 1.8) (layers *.Cu *.Mask F.SilkS))
  (pad 3 thru_hole circle (at 7 0) (size 3.8 3.8) (drill 1.8) (layers *.Cu *.Mask F.SilkS))
  (pad "" np_thru_hole circle (at 19.75 -7.3) (size 3.5 3.5) (drill 3.5) (layers *.Cu *.Mask F.SilkS))
  (pad "" np_thru_hole circle (at -19.75 -7.3) (size 3.5 3.5) (drill 3.5) (layers *.Cu *.Mask F.SilkS))
)
