(module Panasonic_EVM2_2mm (layer F.Cu) (tedit 5869AEE6)
  (descr /home/aunger/Public/Projects/KiCad/docs)
  (tags trim,potentiometer,panasonic)
  (fp_text reference R** (at 0 3.4) (layer F.SilkS)
    (effects (font (size 1 1) (thickness 0.15)))
  )
  (fp_text value Panasonic_EVM2_2mm (at 0 -3.1) (layer F.Fab) hide
    (effects (font (size 1 1) (thickness 0.15)))
  )
  (fp_line (start -0.6 2.3) (end -0.6 1.9) (layer F.SilkS) (width 0.1))
  (fp_line (start 0.6 2.3) (end 0.6 1.9) (layer F.SilkS) (width 0.1))
  (fp_line (start 0 2) (end 0.1 1.9) (layer F.SilkS) (width 0.1))
  (fp_line (start 0 1.6) (end 0 2) (layer F.SilkS) (width 0.1))
  (fp_line (start 0 2) (end -0.1 1.9) (layer F.SilkS) (width 0.1))
  (fp_line (start 0.3 2.3) (end 0.6 2.3) (layer F.SilkS) (width 0.1))
  (fp_line (start -0.4 2.3) (end -0.6 2.3) (layer F.SilkS) (width 0.1))
  (fp_line (start -0.4 2.3) (end -0.3 2.1) (layer F.SilkS) (width 0.1))
  (fp_line (start -0.3 2.1) (end -0.2 2.5) (layer F.SilkS) (width 0.1))
  (fp_line (start -0.2 2.5) (end -0.1 2.1) (layer F.SilkS) (width 0.1))
  (fp_line (start -0.1 2.1) (end 0 2.5) (layer F.SilkS) (width 0.1))
  (fp_line (start 0 2.5) (end 0.1 2.1) (layer F.SilkS) (width 0.1))
  (fp_line (start 0.1 2.1) (end 0.2 2.5) (layer F.SilkS) (width 0.1))
  (fp_line (start 0.2 2.5) (end 0.3 2.3) (layer F.SilkS) (width 0.1))
  (fp_line (start 1.1 1.375) (end 1.1 -1.375) (layer F.SilkS) (width 0.1))
  (fp_line (start -1.1 1.375) (end -1.1 -1.375) (layer F.SilkS) (width 0.1))
  (pad 2 smd rect (at 0 -1.2) (size 1.2 1.1) (layers F.Cu F.Paste F.Mask)
    (clearance 0.05))
  (pad 3 smd rect (at 0.6625 1.3) (size 0.575 0.8) (layers F.Cu F.Paste F.Mask)
    (clearance 0.05))
  (pad 1 smd rect (at -0.6625 1.3) (size 0.575 0.8) (layers F.Cu F.Paste F.Mask)
    (clearance 0.05))
)
