(module TEConnectivity_4pos_90deg (layer F.Cu) (tedit 5C1848D1)
  (descr https://www.te.com/commerce/DocumentDelivery/DDEController?Action=srchrtrv&DocNm=147278&DocType=Customer+Drawing&DocLang=English)
  (tags "te connectivity,4 pin,position,header,90 degree")
  (attr smd)
  (fp_text reference J8 (at 4.7438 10.7354 -270) (layer F.SilkS)
    (effects (font (size 1 1) (thickness 0.15)))
  )
  (fp_text value "SSR Pump 2" (at 0 -9.8) (layer F.Fab) hide
    (effects (font (size 1 1) (thickness 0.15)))
  )
  (fp_line (start -1.54 -8.05) (end 1.54 -8.05) (layer F.SilkS) (width 0.15))
  (fp_line (start -10 -8.05) (end -3.54 -8.05) (layer F.SilkS) (width 0.15))
  (fp_circle (center -5.8 9.7) (end -5.3 9.7) (layer F.SilkS) (width 0.15))
  (fp_line (start -10 5.54) (end -10 -8.05) (layer F.SilkS) (width 0.15))
  (fp_line (start 10 -8.05) (end 10 5.54) (layer F.SilkS) (width 0.15))
  (fp_line (start 3.54 -8.05) (end 10 -8.05) (layer F.SilkS) (width 0.15))
  (pad 3 connect rect (at 1.27 6.73) (size 1.78 4.19) (layers F.Cu F.Mask))
  (pad "" thru_hole circle (at 6.225 3.56) (size 2.16 2.16) (drill 1.19) (layers *.Cu *.Mask))
  (pad "" thru_hole circle (at -6.225 3.56) (size 2.16 2.16) (drill 1.19) (layers *.Cu *.Mask))
  (pad 4 connect rect (at 3.81 6.73) (size 1.78 4.19) (layers F.Cu F.Mask))
  (pad 2 connect rect (at -1.27 6.73) (size 1.78 4.19) (layers F.Cu F.Mask))
  (pad 1 connect rect (at -3.81 6.73) (size 1.78 4.19) (layers F.Cu F.Mask))
  (pad "" connect rect (at 7.195 0) (size 3.45 4.83) (layers F.Cu F.Mask))
  (pad "" connect rect (at -7.195 0) (size 3.45 4.83) (layers F.Cu F.Mask))
)
