(module SDR1307 (layer F.Cu) (tedit 59B35C95)
  (descr http://www.bourns.com/docs/Product-Datasheets/SDR1307.pdf)
  (tags inductor,bourns)
  (fp_text reference L** (at 0 11.557) (layer F.SilkS)
    (effects (font (size 1 1) (thickness 0.15)))
  )
  (fp_text value SDR1307 (at 0 -11.43) (layer F.Fab)
    (effects (font (size 1 1) (thickness 0.15)))
  )
  (fp_circle (center 0 0) (end 7 7) (layer F.SilkS) (width 0.15))
  (pad 1 smd rect (at -4.625 0) (size 4.75 14) (layers F.Cu F.Paste F.Mask))
  (pad 2 smd rect (at 4.625 0) (size 4.75 14) (layers F.Cu F.Paste F.Mask))
)
